EventSelector       DEBUG Property update for OutputLevel : new value = 2
EventSelector        INFO Initializing EventSelector - package version ByteStreamCnvSvc-00-00-00
EventSelector       DEBUG Service base class initialized successfully
ByteStreamInputSvc   INFO Initializing ByteStreamInputSvc - package version ByteStreamCnvSvc-00-00-00
EventSelector.E...  DEBUG Property update for OutputLevel : new value = 2
EventSelector        INFO reinitialization...
AthenaEventLoopMgr   INFO Setup EventSelector service EventSelector
EventSelector       DEBUG Calling EventSelectorByteStream::start()
EventSelector.E...   INFO EvenEventsSelectorTool::postNext
EventSelector.E...   INFO <<<<<<<<<<<<<<<<< Data Store Dump >>>>>>>>>>>>>>> 
 flags: (  valid,   locked,  reset) --- data:          0 --- key: ByteStreamEventInfo
EventSelector.E...   INFO Found attribute list
EventSelector.E...   INFO Spec element RunNumber (long) : 327265
EventSelector.E...   INFO Spec element EventNumber (long) : 186525031
EventSelector.E...   INFO Spec element Lumiblock (int) : 100
EventSelector.E...   INFO Spec element BunchID (int) : 339
EventSelector.E...   INFO Spec element CrossingTimeSec (unsigned int) : 1497896168
EventSelector.E...   INFO Spec element CrossingTimeNSec (unsigned int) : 189247220
EventSelector.E...   INFO Spec element TriggerStatus (unsigned int) : 0
EventSelector.E...   INFO Spec element ExtendedL1ID (unsigned int) : 4060342676
EventSelector.E...   INFO Spec element L1TriggerType (unsigned int) : 129
EventSelector.E...   INFO Spec element L1TriggerInfo_0 (unsigned int) : 0
EventSelector.E...   INFO Spec element L1TriggerInfo_1 (unsigned int) : 0
EventSelector.E...   INFO Spec element L1TriggerInfo_2 (unsigned int) : 0
EventSelector.E...   INFO Spec element L1TriggerInfo_3 (unsigned int) : 0
EventSelector.E...   INFO Spec element L1TriggerInfo_4 (unsigned int) : 1024
EventSelector.E...   INFO Spec element L1TriggerInfo_5 (unsigned int) : 0
EventSelector.E...   INFO Spec element L1TriggerInfo_6 (unsigned int) : 1073785088
EventSelector.E...   INFO Spec element L1TriggerInfo_7 (unsigned int) : 393216
EventSelector.E...   INFO Spec element L1TriggerInfo_8 (unsigned int) : 0
EventSelector.E...   INFO Spec element L1TriggerInfo_9 (unsigned int) : 0
EventSelector.E...   INFO Spec element L1TriggerInfo_10 (unsigned int) : 0
EventSelector.E...   INFO Spec element L1TriggerInfo_11 (unsigned int) : 0
EventSelector.E...   INFO Spec element L1TriggerInfo_12 (unsigned int) : 75497536
EventSelector.E...   INFO Spec element L1TriggerInfo_13 (unsigned int) : 0
EventSelector.E...   INFO Spec element L1TriggerInfo_14 (unsigned int) : 0
EventSelector.E...   INFO Spec element L1TriggerInfo_15 (unsigned int) : 0
EventSelector.E...   INFO Spec element L1TriggerInfo_16 (unsigned int) : 0
EventSelector.E...   INFO Spec element L1TriggerInfo_17 (unsigned int) : 0
EventSelector.E...   INFO Spec element L1TriggerInfo_18 (unsigned int) : 0
EventSelector.E...   INFO Spec element L1TriggerInfo_19 (unsigned int) : 0
EventSelector.E...   INFO Spec element L1TriggerInfo_20 (unsigned int) : 1024
EventSelector.E...   INFO Spec element L1TriggerInfo_21 (unsigned int) : 0
EventSelector.E...   INFO Spec element L1TriggerInfo_22 (unsigned int) : 1073776640
EventSelector.E...   INFO Spec element L1TriggerInfo_23 (unsigned int) : 393216
EventSelector.E...   INFO Spec element L1TriggerInfo_24 (unsigned int) : 0
EventSelector.E...   INFO Spec element L1TriggerInfo_25 (unsigned int) : 0
EventSelector.E...   INFO Spec element L1TriggerInfo_26 (unsigned int) : 0
EventSelector.E...   INFO Spec element L1TriggerInfo_27 (unsigned int) : 0
EventSelector.E...   INFO Spec element L1TriggerInfo_28 (unsigned int) : 75497536
EventSelector.E...   INFO Spec element L1TriggerInfo_29 (unsigned int) : 0
EventSelector.E...   INFO Spec element L1TriggerInfo_30 (unsigned int) : 0
EventSelector.E...   INFO Spec element L1TriggerInfo_31 (unsigned int) : 0
EventSelector.E...   INFO Spec element L1TriggerInfo_32 (unsigned int) : 0
EventSelector.E...   INFO Spec element L1TriggerInfo_33 (unsigned int) : 0
EventSelector.E...   INFO Spec element L1TriggerInfo_34 (unsigned int) : 0
EventSelector.E...   INFO Spec element L1TriggerInfo_35 (unsigned int) : 0
EventSelector.E...   INFO Spec element L1TriggerInfo_36 (unsigned int) : 0
EventSelector.E...   INFO Spec element L1TriggerInfo_37 (unsigned int) : 0
EventSelector.E...   INFO Spec element L1TriggerInfo_38 (unsigned int) : 32768
EventSelector.E...   INFO Spec element L1TriggerInfo_39 (unsigned int) : 0
EventSelector.E...   INFO Spec element L1TriggerInfo_40 (unsigned int) : 0
EventSelector.E...   INFO Spec element L1TriggerInfo_41 (unsigned int) : 0
EventSelector.E...   INFO Spec element L1TriggerInfo_42 (unsigned int) : 0
EventSelector.E...   INFO Spec element L1TriggerInfo_43 (unsigned int) : 0
EventSelector.E...   INFO Spec element L1TriggerInfo_44 (unsigned int) : 0
EventSelector.E...   INFO Spec element L1TriggerInfo_45 (unsigned int) : 0
EventSelector.E...   INFO Spec element L1TriggerInfo_46 (unsigned int) : 0
EventSelector.E...   INFO Spec element L1TriggerInfo_47 (unsigned int) : 0
EventSelector.E...   INFO Spec element EFTriggerInfo_75 (unsigned int) : 8388608
EventSelector.E...   INFO Spec element EnhancedBias (string) : physics
EventSelector.E...   INFO EvenEventsSelectorTool::postNext
EventSelector.E...   INFO <<<<<<<<<<<<<<<<< Data Store Dump >>>>>>>>>>>>>>> 
 flags: (  valid,   locked,  reset) --- data:          0 --- key: ByteStreamEventInfo
EventSelector.E...   INFO Found attribute list
EventSelector.E...   INFO Spec element RunNumber (long) : 327265
EventSelector.E...   INFO Spec element EventNumber (long) : 186524665
EventSelector.E...   INFO Spec element Lumiblock (int) : 100
EventSelector.E...   INFO Spec element BunchID (int) : 3284
EventSelector.E...   INFO Spec element CrossingTimeSec (unsigned int) : 1497896168
EventSelector.E...   INFO Spec element CrossingTimeNSec (unsigned int) : 184074160
EventSelector.E...   INFO Spec element TriggerStatus (unsigned int) : 0
EventSelector.E...   INFO Spec element ExtendedL1ID (unsigned int) : 4060342310
EventSelector.E...   INFO Spec element L1TriggerType (unsigned int) : 129
EventSelector.E...   INFO Spec element L1TriggerInfo_0 (unsigned int) : 1
EventSelector.E...   INFO Spec element L1TriggerInfo_1 (unsigned int) : 65536
EventSelector.E...   INFO Spec element L1TriggerInfo_2 (unsigned int) : 262144
EventSelector.E...   INFO Spec element L1TriggerInfo_3 (unsigned int) : 0
EventSelector.E...   INFO Spec element L1TriggerInfo_4 (unsigned int) : 1024
EventSelector.E...   INFO Spec element L1TriggerInfo_5 (unsigned int) : 0
EventSelector.E...   INFO Spec element L1TriggerInfo_6 (unsigned int) : 1073785088
EventSelector.E...   INFO Spec element L1TriggerInfo_7 (unsigned int) : 393216
EventSelector.E...   INFO Spec element L1TriggerInfo_8 (unsigned int) : 0
EventSelector.E...   INFO Spec element L1TriggerInfo_9 (unsigned int) : 0
EventSelector.E...   INFO Spec element L1TriggerInfo_10 (unsigned int) : 0
EventSelector.E...   INFO Spec element L1TriggerInfo_11 (unsigned int) : 12582912
EventSelector.E...   INFO Spec element L1TriggerInfo_12 (unsigned int) : 75497536
EventSelector.E...   INFO Spec element L1TriggerInfo_13 (unsigned int) : 0
EventSelector.E...   INFO Spec element L1TriggerInfo_14 (unsigned int) : 0
EventSelector.E...   INFO Spec element L1TriggerInfo_15 (unsigned int) : 0
EventSelector.E...   INFO Spec element L1TriggerInfo_16 (unsigned int) : 0
EventSelector.E...   INFO Spec element L1TriggerInfo_17 (unsigned int) : 65536
EventSelector.E...   INFO Spec element L1TriggerInfo_18 (unsigned int) : 262144
EventSelector.E...   INFO Spec element L1TriggerInfo_19 (unsigned int) : 0
EventSelector.E...   INFO Spec element L1TriggerInfo_20 (unsigned int) : 1024
EventSelector.E...   INFO Spec element L1TriggerInfo_21 (unsigned int) : 0
EventSelector.E...   INFO Spec element L1TriggerInfo_22 (unsigned int) : 1073776640
EventSelector.E...   INFO Spec element L1TriggerInfo_23 (unsigned int) : 393216
EventSelector.E...   INFO Spec element L1TriggerInfo_24 (unsigned int) : 0
EventSelector.E...   INFO Spec element L1TriggerInfo_25 (unsigned int) : 0
EventSelector.E...   INFO Spec element L1TriggerInfo_26 (unsigned int) : 0
EventSelector.E...   INFO Spec element L1TriggerInfo_27 (unsigned int) : 12582912
EventSelector.E...   INFO Spec element L1TriggerInfo_28 (unsigned int) : 75497536
EventSelector.E...   INFO Spec element L1TriggerInfo_29 (unsigned int) : 0
EventSelector.E...   INFO Spec element L1TriggerInfo_30 (unsigned int) : 0
EventSelector.E...   INFO Spec element L1TriggerInfo_31 (unsigned int) : 0
EventSelector.E...   INFO Spec element L1TriggerInfo_32 (unsigned int) : 0
EventSelector.E...   INFO Spec element L1TriggerInfo_33 (unsigned int) : 0
EventSelector.E...   INFO Spec element L1TriggerInfo_34 (unsigned int) : 0
EventSelector.E...   INFO Spec element L1TriggerInfo_35 (unsigned int) : 0
EventSelector.E...   INFO Spec element L1TriggerInfo_36 (unsigned int) : 0
EventSelector.E...   INFO Spec element L1TriggerInfo_37 (unsigned int) : 0
EventSelector.E...   INFO Spec element L1TriggerInfo_38 (unsigned int) : 32768
EventSelector.E...   INFO Spec element L1TriggerInfo_39 (unsigned int) : 0
EventSelector.E...   INFO Spec element L1TriggerInfo_40 (unsigned int) : 0
EventSelector.E...   INFO Spec element L1TriggerInfo_41 (unsigned int) : 0
EventSelector.E...   INFO Spec element L1TriggerInfo_42 (unsigned int) : 0
EventSelector.E...   INFO Spec element L1TriggerInfo_43 (unsigned int) : 0
EventSelector.E...   INFO Spec element L1TriggerInfo_44 (unsigned int) : 0
EventSelector.E...   INFO Spec element L1TriggerInfo_45 (unsigned int) : 0
EventSelector.E...   INFO Spec element L1TriggerInfo_46 (unsigned int) : 0
EventSelector.E...   INFO Spec element L1TriggerInfo_47 (unsigned int) : 0
EventSelector.E...   INFO Spec element EFTriggerInfo_75 (unsigned int) : 8388608
EventSelector.E...   INFO Spec element EnhancedBias (string) : physics
EventSelector.E...   INFO EvenEventsSelectorTool::postNext
EventSelector.E...   INFO <<<<<<<<<<<<<<<<< Data Store Dump >>>>>>>>>>>>>>> 
 flags: (  valid,   locked,  reset) --- data:          0 --- key: ByteStreamEventInfo
EventSelector.E...   INFO Found attribute list
EventSelector.E...   INFO Spec element RunNumber (long) : 327265
EventSelector.E...   INFO Spec element EventNumber (long) : 186542447
EventSelector.E...   INFO Spec element Lumiblock (int) : 100
EventSelector.E...   INFO Spec element BunchID (int) : 153
EventSelector.E...   INFO Spec element CrossingTimeSec (unsigned int) : 1497896168
EventSelector.E...   INFO Spec element CrossingTimeNSec (unsigned int) : 444366780
EventSelector.E...   INFO Spec element TriggerStatus (unsigned int) : 0
EventSelector.E...   INFO Spec element ExtendedL1ID (unsigned int) : 4060360092
EventSelector.E...   INFO Spec element L1TriggerType (unsigned int) : 129
EventSelector.E...   INFO Spec element L1TriggerInfo_0 (unsigned int) : 1
EventSelector.E...   INFO Spec element L1TriggerInfo_1 (unsigned int) : 0
EventSelector.E...   INFO Spec element L1TriggerInfo_2 (unsigned int) : 0
EventSelector.E...   INFO Spec element L1TriggerInfo_3 (unsigned int) : 0
EventSelector.E...   INFO Spec element L1TriggerInfo_4 (unsigned int) : 0
EventSelector.E...   INFO Spec element L1TriggerInfo_5 (unsigned int) : 0
EventSelector.E...   INFO Spec element L1TriggerInfo_6 (unsigned int) : 1073785088
EventSelector.E...   INFO Spec element L1TriggerInfo_7 (unsigned int) : 393216
EventSelector.E...   INFO Spec element L1TriggerInfo_8 (unsigned int) : 0
EventSelector.E...   INFO Spec element L1TriggerInfo_9 (unsigned int) : 0
EventSelector.E...   INFO Spec element L1TriggerInfo_10 (unsigned int) : 0
EventSelector.E...   INFO Spec element L1TriggerInfo_11 (unsigned int) : 0
EventSelector.E...   INFO Spec element L1TriggerInfo_12 (unsigned int) : 75497536
EventSelector.E...   INFO Spec element L1TriggerInfo_13 (unsigned int) : 0
EventSelector.E...   INFO Spec element L1TriggerInfo_14 (unsigned int) : 0
EventSelector.E...   INFO Spec element L1TriggerInfo_15 (unsigned int) : 0
EventSelector.E...   INFO Spec element L1TriggerInfo_16 (unsigned int) : 0
EventSelector.E...   INFO Spec element L1TriggerInfo_17 (unsigned int) : 0
EventSelector.E...   INFO Spec element L1TriggerInfo_18 (unsigned int) : 0
EventSelector.E...   INFO Spec element L1TriggerInfo_19 (unsigned int) : 0
EventSelector.E...   INFO Spec element L1TriggerInfo_20 (unsigned int) : 0
EventSelector.E...   INFO Spec element L1TriggerInfo_21 (unsigned int) : 0
EventSelector.E...   INFO Spec element L1TriggerInfo_22 (unsigned int) : 1073776640
EventSelector.E...   INFO Spec element L1TriggerInfo_23 (unsigned int) : 393216
EventSelector.E...   INFO Spec element L1TriggerInfo_24 (unsigned int) : 0
EventSelector.E...   INFO Spec element L1TriggerInfo_25 (unsigned int) : 0
EventSelector.E...   INFO Spec element L1TriggerInfo_26 (unsigned int) : 0
EventSelector.E...   INFO Spec element L1TriggerInfo_27 (unsigned int) : 0
EventSelector.E...   INFO Spec element L1TriggerInfo_28 (unsigned int) : 75497536
EventSelector.E...   INFO Spec element L1TriggerInfo_29 (unsigned int) : 0
EventSelector.E...   INFO Spec element L1TriggerInfo_30 (unsigned int) : 0
EventSelector.E...   INFO Spec element L1TriggerInfo_31 (unsigned int) : 0
EventSelector.E...   INFO Spec element L1TriggerInfo_32 (unsigned int) : 0
EventSelector.E...   INFO Spec element L1TriggerInfo_33 (unsigned int) : 0
EventSelector.E...   INFO Spec element L1TriggerInfo_34 (unsigned int) : 0
EventSelector.E...   INFO Spec element L1TriggerInfo_35 (unsigned int) : 0
EventSelector.E...   INFO Spec element L1TriggerInfo_36 (unsigned int) : 0
EventSelector.E...   INFO Spec element L1TriggerInfo_37 (unsigned int) : 0
EventSelector.E...   INFO Spec element L1TriggerInfo_38 (unsigned int) : 32768
EventSelector.E...   INFO Spec element L1TriggerInfo_39 (unsigned int) : 0
EventSelector.E...   INFO Spec element L1TriggerInfo_40 (unsigned int) : 0
EventSelector.E...   INFO Spec element L1TriggerInfo_41 (unsigned int) : 0
EventSelector.E...   INFO Spec element L1TriggerInfo_42 (unsigned int) : 0
EventSelector.E...   INFO Spec element L1TriggerInfo_43 (unsigned int) : 0
EventSelector.E...   INFO Spec element L1TriggerInfo_44 (unsigned int) : 0
EventSelector.E...   INFO Spec element L1TriggerInfo_45 (unsigned int) : 0
EventSelector.E...   INFO Spec element L1TriggerInfo_46 (unsigned int) : 0
EventSelector.E...   INFO Spec element L1TriggerInfo_47 (unsigned int) : 0
EventSelector.E...   INFO Spec element EFTriggerInfo_75 (unsigned int) : 8388608
EventSelector.E...   INFO Spec element EnhancedBias (string) : physics
EventSelector.E...   INFO EvenEventsSelectorTool::postNext
EventSelector.E...   INFO <<<<<<<<<<<<<<<<< Data Store Dump >>>>>>>>>>>>>>> 
 flags: (  valid,   locked,  reset) --- data:          0 --- key: ByteStreamEventInfo
EventSelector.E...   INFO Found attribute list
EventSelector.E...   INFO Spec element RunNumber (long) : 327265
EventSelector.E...   INFO Spec element EventNumber (long) : 186543405
EventSelector.E...   INFO Spec element Lumiblock (int) : 100
EventSelector.E...   INFO Spec element BunchID (int) : 2757
EventSelector.E...   INFO Spec element CrossingTimeSec (unsigned int) : 1497896168
EventSelector.E...   INFO Spec element CrossingTimeNSec (unsigned int) : 458481815
EventSelector.E...   INFO Spec element TriggerStatus (unsigned int) : 0
EventSelector.E...   INFO Spec element ExtendedL1ID (unsigned int) : 4060361050
EventSelector.E...   INFO Spec element L1TriggerType (unsigned int) : 129
EventSelector.E...   INFO Spec element L1TriggerInfo_0 (unsigned int) : 0
EventSelector.E...   INFO Spec element L1TriggerInfo_1 (unsigned int) : 65536
EventSelector.E...   INFO Spec element L1TriggerInfo_2 (unsigned int) : 262144
EventSelector.E...   INFO Spec element L1TriggerInfo_3 (unsigned int) : 0
EventSelector.E...   INFO Spec element L1TriggerInfo_4 (unsigned int) : 33792
EventSelector.E...   INFO Spec element L1TriggerInfo_5 (unsigned int) : 0
EventSelector.E...   INFO Spec element L1TriggerInfo_6 (unsigned int) : 1073785088
EventSelector.E...   INFO Spec element L1TriggerInfo_7 (unsigned int) : 393216
EventSelector.E...   INFO Spec element L1TriggerInfo_8 (unsigned int) : 0
EventSelector.E...   INFO Spec element L1TriggerInfo_9 (unsigned int) : 0
EventSelector.E...   INFO Spec element L1TriggerInfo_10 (unsigned int) : 0
EventSelector.E...   INFO Spec element L1TriggerInfo_11 (unsigned int) : 29360128
EventSelector.E...   INFO Spec element L1TriggerInfo_12 (unsigned int) : 109051968
EventSelector.E...   INFO Spec element L1TriggerInfo_13 (unsigned int) : 0
EventSelector.E...   INFO Spec element L1TriggerInfo_14 (unsigned int) : 0
EventSelector.E...   INFO Spec element L1TriggerInfo_15 (unsigned int) : 0
EventSelector.E...   INFO Spec element L1TriggerInfo_16 (unsigned int) : 0
EventSelector.E...   INFO Spec element L1TriggerInfo_17 (unsigned int) : 65536
EventSelector.E...   INFO Spec element L1TriggerInfo_18 (unsigned int) : 262144
EventSelector.E...   INFO Spec element L1TriggerInfo_19 (unsigned int) : 0
EventSelector.E...   INFO Spec element L1TriggerInfo_20 (unsigned int) : 33792
EventSelector.E...   INFO Spec element L1TriggerInfo_21 (unsigned int) : 0
EventSelector.E...   INFO Spec element L1TriggerInfo_22 (unsigned int) : 1073776640
EventSelector.E...   INFO Spec element L1TriggerInfo_23 (unsigned int) : 393216
EventSelector.E...   INFO Spec element L1TriggerInfo_24 (unsigned int) : 0
EventSelector.E...   INFO Spec element L1TriggerInfo_25 (unsigned int) : 0
EventSelector.E...   INFO Spec element L1TriggerInfo_26 (unsigned int) : 0
EventSelector.E...   INFO Spec element L1TriggerInfo_27 (unsigned int) : 29360128
EventSelector.E...   INFO Spec element L1TriggerInfo_28 (unsigned int) : 109051968
EventSelector.E...   INFO Spec element L1TriggerInfo_29 (unsigned int) : 0
EventSelector.E...   INFO Spec element L1TriggerInfo_30 (unsigned int) : 0
EventSelector.E...   INFO Spec element L1TriggerInfo_31 (unsigned int) : 0
EventSelector.E...   INFO Spec element L1TriggerInfo_32 (unsigned int) : 0
EventSelector.E...   INFO Spec element L1TriggerInfo_33 (unsigned int) : 0
EventSelector.E...   INFO Spec element L1TriggerInfo_34 (unsigned int) : 0
EventSelector.E...   INFO Spec element L1TriggerInfo_35 (unsigned int) : 0
EventSelector.E...   INFO Spec element L1TriggerInfo_36 (unsigned int) : 0
EventSelector.E...   INFO Spec element L1TriggerInfo_37 (unsigned int) : 0
EventSelector.E...   INFO Spec element L1TriggerInfo_38 (unsigned int) : 32768
EventSelector.E...   INFO Spec element L1TriggerInfo_39 (unsigned int) : 0
EventSelector.E...   INFO Spec element L1TriggerInfo_40 (unsigned int) : 0
EventSelector.E...   INFO Spec element L1TriggerInfo_41 (unsigned int) : 0
EventSelector.E...   INFO Spec element L1TriggerInfo_42 (unsigned int) : 0
EventSelector.E...   INFO Spec element L1TriggerInfo_43 (unsigned int) : 0
EventSelector.E...   INFO Spec element L1TriggerInfo_44 (unsigned int) : 0
EventSelector.E...   INFO Spec element L1TriggerInfo_45 (unsigned int) : 0
EventSelector.E...   INFO Spec element L1TriggerInfo_46 (unsigned int) : 0
EventSelector.E...   INFO Spec element L1TriggerInfo_47 (unsigned int) : 0
EventSelector.E...   INFO Spec element EFTriggerInfo_75 (unsigned int) : 8388608
EventSelector.E...   INFO Spec element EnhancedBias (string) : physics
EventSelector.E...   INFO EvenEventsSelectorTool::postNext
EventSelector.E...   INFO <<<<<<<<<<<<<<<<< Data Store Dump >>>>>>>>>>>>>>> 
 flags: (  valid,   locked,  reset) --- data:          0 --- key: ByteStreamEventInfo
EventSelector.E...   INFO Found attribute list
EventSelector.E...   INFO Spec element RunNumber (long) : 327265
EventSelector.E...   INFO Spec element EventNumber (long) : 186548387
EventSelector.E...   INFO Spec element Lumiblock (int) : 100
EventSelector.E...   INFO Spec element BunchID (int) : 1931
EventSelector.E...   INFO Spec element CrossingTimeSec (unsigned int) : 1497896168
EventSelector.E...   INFO Spec element CrossingTimeNSec (unsigned int) : 529867525
EventSelector.E...   INFO Spec element TriggerStatus (unsigned int) : 0
EventSelector.E...   INFO Spec element ExtendedL1ID (unsigned int) : 4060366032
EventSelector.E...   INFO Spec element L1TriggerType (unsigned int) : 129
EventSelector.E...   INFO Spec element L1TriggerInfo_0 (unsigned int) : 0
EventSelector.E...   INFO Spec element L1TriggerInfo_1 (unsigned int) : 65536
EventSelector.E...   INFO Spec element L1TriggerInfo_2 (unsigned int) : 262144
EventSelector.E...   INFO Spec element L1TriggerInfo_3 (unsigned int) : 0
EventSelector.E...   INFO Spec element L1TriggerInfo_4 (unsigned int) : 1610646528
EventSelector.E...   INFO Spec element L1TriggerInfo_5 (unsigned int) : 1
EventSelector.E...   INFO Spec element L1TriggerInfo_6 (unsigned int) : 1073785088
EventSelector.E...   INFO Spec element L1TriggerInfo_7 (unsigned int) : 393216
EventSelector.E...   INFO Spec element L1TriggerInfo_8 (unsigned int) : 0
EventSelector.E...   INFO Spec element L1TriggerInfo_9 (unsigned int) : 0
EventSelector.E...   INFO Spec element L1TriggerInfo_10 (unsigned int) : 0
EventSelector.E...   INFO Spec element L1TriggerInfo_11 (unsigned int) : 29360128
EventSelector.E...   INFO Spec element L1TriggerInfo_12 (unsigned int) : 109051968
EventSelector.E...   INFO Spec element L1TriggerInfo_13 (unsigned int) : 4
EventSelector.E...   INFO Spec element L1TriggerInfo_14 (unsigned int) : 0
EventSelector.E...   INFO Spec element L1TriggerInfo_15 (unsigned int) : 0
EventSelector.E...   INFO Spec element L1TriggerInfo_16 (unsigned int) : 0
EventSelector.E...   INFO Spec element L1TriggerInfo_17 (unsigned int) : 65536
EventSelector.E...   INFO Spec element L1TriggerInfo_18 (unsigned int) : 262144
EventSelector.E...   INFO Spec element L1TriggerInfo_19 (unsigned int) : 0
EventSelector.E...   INFO Spec element L1TriggerInfo_20 (unsigned int) : 1610646528
EventSelector.E...   INFO Spec element L1TriggerInfo_21 (unsigned int) : 1
EventSelector.E...   INFO Spec element L1TriggerInfo_22 (unsigned int) : 1073776640
EventSelector.E...   INFO Spec element L1TriggerInfo_23 (unsigned int) : 393216
EventSelector.E...   INFO Spec element L1TriggerInfo_24 (unsigned int) : 0
EventSelector.E...   INFO Spec element L1TriggerInfo_25 (unsigned int) : 0
EventSelector.E...   INFO Spec element L1TriggerInfo_26 (unsigned int) : 0
EventSelector.E...   INFO Spec element L1TriggerInfo_27 (unsigned int) : 29360128
EventSelector.E...   INFO Spec element L1TriggerInfo_28 (unsigned int) : 109051968
EventSelector.E...   INFO Spec element L1TriggerInfo_29 (unsigned int) : 4
EventSelector.E...   INFO Spec element L1TriggerInfo_30 (unsigned int) : 0
EventSelector.E...   INFO Spec element L1TriggerInfo_31 (unsigned int) : 0
EventSelector.E...   INFO Spec element L1TriggerInfo_32 (unsigned int) : 0
EventSelector.E...   INFO Spec element L1TriggerInfo_33 (unsigned int) : 0
EventSelector.E...   INFO Spec element L1TriggerInfo_34 (unsigned int) : 0
EventSelector.E...   INFO Spec element L1TriggerInfo_35 (unsigned int) : 0
EventSelector.E...   INFO Spec element L1TriggerInfo_36 (unsigned int) : 0
EventSelector.E...   INFO Spec element L1TriggerInfo_37 (unsigned int) : 0
EventSelector.E...   INFO Spec element L1TriggerInfo_38 (unsigned int) : 32768
EventSelector.E...   INFO Spec element L1TriggerInfo_39 (unsigned int) : 0
EventSelector.E...   INFO Spec element L1TriggerInfo_40 (unsigned int) : 0
EventSelector.E...   INFO Spec element L1TriggerInfo_41 (unsigned int) : 0
EventSelector.E...   INFO Spec element L1TriggerInfo_42 (unsigned int) : 0
EventSelector.E...   INFO Spec element L1TriggerInfo_43 (unsigned int) : 0
EventSelector.E...   INFO Spec element L1TriggerInfo_44 (unsigned int) : 0
EventSelector.E...   INFO Spec element L1TriggerInfo_45 (unsigned int) : 0
EventSelector.E...   INFO Spec element L1TriggerInfo_46 (unsigned int) : 0
EventSelector.E...   INFO Spec element L1TriggerInfo_47 (unsigned int) : 0
EventSelector.E...   INFO Spec element EFTriggerInfo_75 (unsigned int) : 8388608
EventSelector.E...   INFO Spec element EnhancedBias (string) : physics
EventSelector.E...   INFO EvenEventsSelectorTool::postNext
EventSelector.E...   INFO <<<<<<<<<<<<<<<<< Data Store Dump >>>>>>>>>>>>>>> 
 flags: (  valid,   locked,  reset) --- data:          0 --- key: ByteStreamEventInfo
EventSelector.E...   INFO Found attribute list
EventSelector.E...   INFO Spec element RunNumber (long) : 327265
EventSelector.E...   INFO Spec element EventNumber (long) : 186515186
EventSelector.E...   INFO Spec element Lumiblock (int) : 100
EventSelector.E...   INFO Spec element BunchID (int) : 613
EventSelector.E...   INFO Spec element CrossingTimeSec (unsigned int) : 1497896168
EventSelector.E...   INFO Spec element CrossingTimeNSec (unsigned int) : 48308825
EventSelector.E...   INFO Spec element TriggerStatus (unsigned int) : 0
EventSelector.E...   INFO Spec element ExtendedL1ID (unsigned int) : 4060332831
EventSelector.E...   INFO Spec element L1TriggerType (unsigned int) : 132
EventSelector.E...   INFO Spec element L1TriggerInfo_0 (unsigned int) : 3816820703
EventSelector.E...   INFO Spec element L1TriggerInfo_1 (unsigned int) : 1024434176
EventSelector.E...   INFO Spec element L1TriggerInfo_2 (unsigned int) : 2017722384
EventSelector.E...   INFO Spec element L1TriggerInfo_3 (unsigned int) : 0
EventSelector.E...   INFO Spec element L1TriggerInfo_4 (unsigned int) : 3842016256
EventSelector.E...   INFO Spec element L1TriggerInfo_5 (unsigned int) : 1
EventSelector.E...   INFO Spec element L1TriggerInfo_6 (unsigned int) : 1073785088
EventSelector.E...   INFO Spec element L1TriggerInfo_7 (unsigned int) : 393216
EventSelector.E...   INFO Spec element L1TriggerInfo_8 (unsigned int) : 1117782016
EventSelector.E...   INFO Spec element L1TriggerInfo_9 (unsigned int) : 128
EventSelector.E...   INFO Spec element L1TriggerInfo_10 (unsigned int) : 0
EventSelector.E...   INFO Spec element L1TriggerInfo_11 (unsigned int) : 297795584
EventSelector.E...   INFO Spec element L1TriggerInfo_12 (unsigned int) : 109316424
EventSelector.E...   INFO Spec element L1TriggerInfo_13 (unsigned int) : 388
EventSelector.E...   INFO Spec element L1TriggerInfo_14 (unsigned int) : 0
EventSelector.E...   INFO Spec element L1TriggerInfo_15 (unsigned int) : 69206016
EventSelector.E...   INFO Spec element L1TriggerInfo_16 (unsigned int) : 33557768
EventSelector.E...   INFO Spec element L1TriggerInfo_17 (unsigned int) : 688848896
EventSelector.E...   INFO Spec element L1TriggerInfo_18 (unsigned int) : 138674176
EventSelector.E...   INFO Spec element L1TriggerInfo_19 (unsigned int) : 0
EventSelector.E...   INFO Spec element L1TriggerInfo_20 (unsigned int) : 3774907392
EventSelector.E...   INFO Spec element L1TriggerInfo_21 (unsigned int) : 1
EventSelector.E...   INFO Spec element L1TriggerInfo_22 (unsigned int) : 1073743872
EventSelector.E...   INFO Spec element L1TriggerInfo_23 (unsigned int) : 393216
EventSelector.E...   INFO Spec element L1TriggerInfo_24 (unsigned int) : 1117782016
EventSelector.E...   INFO Spec element L1TriggerInfo_25 (unsigned int) : 128
EventSelector.E...   INFO Spec element L1TriggerInfo_26 (unsigned int) : 0
EventSelector.E...   INFO Spec element L1TriggerInfo_27 (unsigned int) : 297795584
EventSelector.E...   INFO Spec element L1TriggerInfo_28 (unsigned int) : 109316424
EventSelector.E...   INFO Spec element L1TriggerInfo_29 (unsigned int) : 388
EventSelector.E...   INFO Spec element L1TriggerInfo_30 (unsigned int) : 0
EventSelector.E...   INFO Spec element L1TriggerInfo_31 (unsigned int) : 69206016
EventSelector.E...   INFO Spec element L1TriggerInfo_32 (unsigned int) : 2048
EventSelector.E...   INFO Spec element L1TriggerInfo_33 (unsigned int) : 536870912
EventSelector.E...   INFO Spec element L1TriggerInfo_34 (unsigned int) : 0
EventSelector.E...   INFO Spec element L1TriggerInfo_35 (unsigned int) : 0
EventSelector.E...   INFO Spec element L1TriggerInfo_36 (unsigned int) : 0
EventSelector.E...   INFO Spec element L1TriggerInfo_37 (unsigned int) : 0
EventSelector.E...   INFO Spec element L1TriggerInfo_38 (unsigned int) : 0
EventSelector.E...   INFO Spec element L1TriggerInfo_39 (unsigned int) : 0
EventSelector.E...   INFO Spec element L1TriggerInfo_40 (unsigned int) : 0
EventSelector.E...   INFO Spec element L1TriggerInfo_41 (unsigned int) : 128
EventSelector.E...   INFO Spec element L1TriggerInfo_42 (unsigned int) : 0
EventSelector.E...   INFO Spec element L1TriggerInfo_43 (unsigned int) : 0
EventSelector.E...   INFO Spec element L1TriggerInfo_44 (unsigned int) : 262400
EventSelector.E...   INFO Spec element L1TriggerInfo_45 (unsigned int) : 0
EventSelector.E...   INFO Spec element L1TriggerInfo_46 (unsigned int) : 0
EventSelector.E...   INFO Spec element L1TriggerInfo_47 (unsigned int) : 0
EventSelector.E...   INFO Spec element EFTriggerInfo_75 (unsigned int) : 16777216
EventSelector.E...   INFO Spec element EnhancedBias (string) : physics
EventSelector.E...   INFO Rejecting event
EventSelector        INFO skipping event 6
EventSelector.E...   INFO EvenEventsSelectorTool::postNext
EventSelector.E...   INFO <<<<<<<<<<<<<<<<< Data Store Dump >>>>>>>>>>>>>>> 
 flags: (  valid,   locked,  reset) --- data:          0 --- key: ByteStreamEventInfo
EventSelector.E...   INFO Found attribute list
EventSelector.E...   INFO Spec element RunNumber (long) : 327265
EventSelector.E...   INFO Spec element EventNumber (long) : 186556019
EventSelector.E...   INFO Spec element Lumiblock (int) : 100
EventSelector.E...   INFO Spec element BunchID (int) : 3170
EventSelector.E...   INFO Spec element CrossingTimeSec (unsigned int) : 1497896168
EventSelector.E...   INFO Spec element CrossingTimeNSec (unsigned int) : 639275495
EventSelector.E...   INFO Spec element TriggerStatus (unsigned int) : 0
EventSelector.E...   INFO Spec element ExtendedL1ID (unsigned int) : 4060373664
EventSelector.E...   INFO Spec element L1TriggerType (unsigned int) : 129
EventSelector.E...   INFO Spec element L1TriggerInfo_0 (unsigned int) : 0
EventSelector.E...   INFO Spec element L1TriggerInfo_1 (unsigned int) : 0
EventSelector.E...   INFO Spec element L1TriggerInfo_2 (unsigned int) : 0
EventSelector.E...   INFO Spec element L1TriggerInfo_3 (unsigned int) : 0
EventSelector.E...   INFO Spec element L1TriggerInfo_4 (unsigned int) : 1024
EventSelector.E...   INFO Spec element L1TriggerInfo_5 (unsigned int) : 0
EventSelector.E...   INFO Spec element L1TriggerInfo_6 (unsigned int) : 1073785088
EventSelector.E...   INFO Spec element L1TriggerInfo_7 (unsigned int) : 393216
EventSelector.E...   INFO Spec element L1TriggerInfo_8 (unsigned int) : 0
EventSelector.E...   INFO Spec element L1TriggerInfo_9 (unsigned int) : 0
EventSelector.E...   INFO Spec element L1TriggerInfo_10 (unsigned int) : 0
EventSelector.E...   INFO Spec element L1TriggerInfo_11 (unsigned int) : 0
EventSelector.E...   INFO Spec element L1TriggerInfo_12 (unsigned int) : 75497536
EventSelector.E...   INFO Spec element L1TriggerInfo_13 (unsigned int) : 0
EventSelector.E...   INFO Spec element L1TriggerInfo_14 (unsigned int) : 0
EventSelector.E...   INFO Spec element L1TriggerInfo_15 (unsigned int) : 0
EventSelector.E...   INFO Spec element L1TriggerInfo_16 (unsigned int) : 0
EventSelector.E...   INFO Spec element L1TriggerInfo_17 (unsigned int) : 0
EventSelector.E...   INFO Spec element L1TriggerInfo_18 (unsigned int) : 0
EventSelector.E...   INFO Spec element L1TriggerInfo_19 (unsigned int) : 0
EventSelector.E...   INFO Spec element L1TriggerInfo_20 (unsigned int) : 1024
EventSelector.E...   INFO Spec element L1TriggerInfo_21 (unsigned int) : 0
EventSelector.E...   INFO Spec element L1TriggerInfo_22 (unsigned int) : 1073776640
EventSelector.E...   INFO Spec element L1TriggerInfo_23 (unsigned int) : 393216
EventSelector.E...   INFO Spec element L1TriggerInfo_24 (unsigned int) : 0
EventSelector.E...   INFO Spec element L1TriggerInfo_25 (unsigned int) : 0
EventSelector.E...   INFO Spec element L1TriggerInfo_26 (unsigned int) : 0
EventSelector.E...   INFO Spec element L1TriggerInfo_27 (unsigned int) : 0
EventSelector.E...   INFO Spec element L1TriggerInfo_28 (unsigned int) : 75497536
EventSelector.E...   INFO Spec element L1TriggerInfo_29 (unsigned int) : 0
EventSelector.E...   INFO Spec element L1TriggerInfo_30 (unsigned int) : 0
EventSelector.E...   INFO Spec element L1TriggerInfo_31 (unsigned int) : 0
EventSelector.E...   INFO Spec element L1TriggerInfo_32 (unsigned int) : 0
EventSelector.E...   INFO Spec element L1TriggerInfo_33 (unsigned int) : 0
EventSelector.E...   INFO Spec element L1TriggerInfo_34 (unsigned int) : 0
EventSelector.E...   INFO Spec element L1TriggerInfo_35 (unsigned int) : 0
EventSelector.E...   INFO Spec element L1TriggerInfo_36 (unsigned int) : 0
EventSelector.E...   INFO Spec element L1TriggerInfo_37 (unsigned int) : 0
EventSelector.E...   INFO Spec element L1TriggerInfo_38 (unsigned int) : 32768
EventSelector.E...   INFO Spec element L1TriggerInfo_39 (unsigned int) : 0
EventSelector.E...   INFO Spec element L1TriggerInfo_40 (unsigned int) : 0
EventSelector.E...   INFO Spec element L1TriggerInfo_41 (unsigned int) : 0
EventSelector.E...   INFO Spec element L1TriggerInfo_42 (unsigned int) : 0
EventSelector.E...   INFO Spec element L1TriggerInfo_43 (unsigned int) : 0
EventSelector.E...   INFO Spec element L1TriggerInfo_44 (unsigned int) : 0
EventSelector.E...   INFO Spec element L1TriggerInfo_45 (unsigned int) : 0
EventSelector.E...   INFO Spec element L1TriggerInfo_46 (unsigned int) : 0
EventSelector.E...   INFO Spec element L1TriggerInfo_47 (unsigned int) : 0
EventSelector.E...   INFO Spec element EFTriggerInfo_75 (unsigned int) : 8388608
EventSelector.E...   INFO Spec element EnhancedBias (string) : physics
EventSelector.E...   INFO EvenEventsSelectorTool::postNext
EventSelector.E...   INFO <<<<<<<<<<<<<<<<< Data Store Dump >>>>>>>>>>>>>>> 
 flags: (  valid,   locked,  reset) --- data:          0 --- key: ByteStreamEventInfo
EventSelector.E...   INFO Found attribute list
EventSelector.E...   INFO Spec element RunNumber (long) : 327265
EventSelector.E...   INFO Spec element EventNumber (long) : 186542866
EventSelector.E...   INFO Spec element Lumiblock (int) : 100
EventSelector.E...   INFO Spec element BunchID (int) : 1260
EventSelector.E...   INFO Spec element CrossingTimeSec (unsigned int) : 1497896168
EventSelector.E...   INFO Spec element CrossingTimeNSec (unsigned int) : 450530190
EventSelector.E...   INFO Spec element TriggerStatus (unsigned int) : 0
EventSelector.E...   INFO Spec element ExtendedL1ID (unsigned int) : 4060360511
EventSelector.E...   INFO Spec element L1TriggerType (unsigned int) : 129
EventSelector.E...   INFO Spec element L1TriggerInfo_0 (unsigned int) : 8388609
EventSelector.E...   INFO Spec element L1TriggerInfo_1 (unsigned int) : 65536
EventSelector.E...   INFO Spec element L1TriggerInfo_2 (unsigned int) : 262144
EventSelector.E...   INFO Spec element L1TriggerInfo_3 (unsigned int) : 0
EventSelector.E...   INFO Spec element L1TriggerInfo_4 (unsigned int) : 1610646528
EventSelector.E...   INFO Spec element L1TriggerInfo_5 (unsigned int) : 1
EventSelector.E...   INFO Spec element L1TriggerInfo_6 (unsigned int) : 1074833664
EventSelector.E...   INFO Spec element L1TriggerInfo_7 (unsigned int) : 393216
EventSelector.E...   INFO Spec element L1TriggerInfo_8 (unsigned int) : 64
EventSelector.E...   INFO Spec element L1TriggerInfo_9 (unsigned int) : 0
EventSelector.E...   INFO Spec element L1TriggerInfo_10 (unsigned int) : 0
EventSelector.E...   INFO Spec element L1TriggerInfo_11 (unsigned int) : 29360128
EventSelector.E...   INFO Spec element L1TriggerInfo_12 (unsigned int) : 109051968
EventSelector.E...   INFO Spec element L1TriggerInfo_13 (unsigned int) : 0
EventSelector.E...   INFO Spec element L1TriggerInfo_14 (unsigned int) : 0
EventSelector.E...   INFO Spec element L1TriggerInfo_15 (unsigned int) : 0
EventSelector.E...   INFO Spec element L1TriggerInfo_16 (unsigned int) : 0
EventSelector.E...   INFO Spec element L1TriggerInfo_17 (unsigned int) : 65536
EventSelector.E...   INFO Spec element L1TriggerInfo_18 (unsigned int) : 262144
EventSelector.E...   INFO Spec element L1TriggerInfo_19 (unsigned int) : 0
EventSelector.E...   INFO Spec element L1TriggerInfo_20 (unsigned int) : 1610646528
EventSelector.E...   INFO Spec element L1TriggerInfo_21 (unsigned int) : 1
EventSelector.E...   INFO Spec element L1TriggerInfo_22 (unsigned int) : 1074825216
EventSelector.E...   INFO Spec element L1TriggerInfo_23 (unsigned int) : 393216
EventSelector.E...   INFO Spec element L1TriggerInfo_24 (unsigned int) : 64
EventSelector.E...   INFO Spec element L1TriggerInfo_25 (unsigned int) : 0
EventSelector.E...   INFO Spec element L1TriggerInfo_26 (unsigned int) : 0
EventSelector.E...   INFO Spec element L1TriggerInfo_27 (unsigned int) : 29360128
EventSelector.E...   INFO Spec element L1TriggerInfo_28 (unsigned int) : 109051968
EventSelector.E...   INFO Spec element L1TriggerInfo_29 (unsigned int) : 0
EventSelector.E...   INFO Spec element L1TriggerInfo_30 (unsigned int) : 0
EventSelector.E...   INFO Spec element L1TriggerInfo_31 (unsigned int) : 0
EventSelector.E...   INFO Spec element L1TriggerInfo_32 (unsigned int) : 0
EventSelector.E...   INFO Spec element L1TriggerInfo_33 (unsigned int) : 0
EventSelector.E...   INFO Spec element L1TriggerInfo_34 (unsigned int) : 0
EventSelector.E...   INFO Spec element L1TriggerInfo_35 (unsigned int) : 0
EventSelector.E...   INFO Spec element L1TriggerInfo_36 (unsigned int) : 0
EventSelector.E...   INFO Spec element L1TriggerInfo_37 (unsigned int) : 0
EventSelector.E...   INFO Spec element L1TriggerInfo_38 (unsigned int) : 32768
EventSelector.E...   INFO Spec element L1TriggerInfo_39 (unsigned int) : 0
EventSelector.E...   INFO Spec element L1TriggerInfo_40 (unsigned int) : 0
EventSelector.E...   INFO Spec element L1TriggerInfo_41 (unsigned int) : 0
EventSelector.E...   INFO Spec element L1TriggerInfo_42 (unsigned int) : 0
EventSelector.E...   INFO Spec element L1TriggerInfo_43 (unsigned int) : 0
EventSelector.E...   INFO Spec element L1TriggerInfo_44 (unsigned int) : 0
EventSelector.E...   INFO Spec element L1TriggerInfo_45 (unsigned int) : 0
EventSelector.E...   INFO Spec element L1TriggerInfo_46 (unsigned int) : 0
EventSelector.E...   INFO Spec element L1TriggerInfo_47 (unsigned int) : 0
EventSelector.E...   INFO Spec element EFTriggerInfo_75 (unsigned int) : 8388608
EventSelector.E...   INFO Spec element EnhancedBias (string) : physics
EventSelector.E...   INFO Rejecting event
EventSelector        INFO skipping event 8
EventSelector.E...   INFO EvenEventsSelectorTool::postNext
EventSelector.E...WARNING INFO message limit (500) reached for EventSelector.EvenEventsSelectorTool. Suppressing further output.
EventSelector        INFO skipping event 12
EventSelector        INFO skipping event 13
EventSelector        INFO skipping event 16
EventSelector        INFO skipping event 17
EventSelector        INFO skipping event 19
EventSelector        INFO skipping event 21
EventSelector        INFO skipping event 24
EventSelector        INFO skipping event 25
EventSelector        INFO skipping event 27
EventSelector        INFO skipping event 29
EventSelector        INFO skipping event 30
EventSelector        INFO skipping event 31
EventSelector        INFO skipping event 32
EventSelector        INFO skipping event 33
EventSelector        INFO skipping event 34
EventSelector        INFO skipping event 37
EventSelector        INFO skipping event 39
EventSelector        INFO skipping event 42
EventSelector        INFO skipping event 43
EventSelector        INFO skipping event 44
EventSelector        INFO skipping event 45
EventSelector        INFO skipping event 46
EventSelector        INFO skipping event 48
EventSelector        INFO skipping event 50
EventSelector        INFO skipping event 52
EventSelector        INFO skipping event 55
EventSelector        INFO skipping event 57
EventSelector        INFO skipping event 59
EventSelector        INFO skipping event 60
EventSelector        INFO skipping event 61
EventSelector        INFO skipping event 69
EventSelector        INFO skipping event 70
EventSelector        INFO skipping event 76
EventSelector        INFO skipping event 77
EventSelector        INFO skipping event 78
EventSelector        INFO skipping event 82
EventSelector        INFO skipping event 83
EventSelector        INFO skipping event 86
EventSelector        INFO skipping event 88
EventSelector        INFO skipping event 89
EventSelector        INFO skipping event 97
EventSelector        INFO skipping event 98
EventSelector        INFO skipping event 99
EventSelector        INFO skipping event 100
EventSelector        INFO skipping event 101
EventSelector        INFO skipping event 103
EventSelector        INFO skipping event 104
EventSelector        INFO skipping event 105
EventSelector        INFO skipping event 109
EventSelector        INFO skipping event 111
EventSelector        INFO skipping event 112
EventSelector        INFO skipping event 113
EventSelector        INFO skipping event 114
EventSelector        INFO skipping event 117
EventSelector        INFO skipping event 118
EventSelector        INFO skipping event 120
EventSelector        INFO skipping event 123
EventSelector        INFO skipping event 124
EventSelector        INFO skipping event 125
EventSelector        INFO skipping event 128
EventSelector        INFO skipping event 129
EventSelector        INFO skipping event 130
EventSelector        INFO skipping event 132
EventSelector        INFO skipping event 136
EventSelector        INFO skipping event 137
EventSelector        INFO skipping event 140
EventSelector        INFO skipping event 143
EventSelector        INFO skipping event 145
EventSelector        INFO skipping event 146
EventSelector        INFO skipping event 151
EventSelector        INFO skipping event 154
EventSelector        INFO skipping event 155
EventSelector        INFO skipping event 156
EventSelector        INFO skipping event 160
EventSelector        INFO skipping event 161
EventSelector        INFO skipping event 163
EventSelector        INFO skipping event 165
EventSelector        INFO skipping event 167
EventSelector        INFO skipping event 168
EventSelector        INFO skipping event 173
EventSelector        INFO skipping event 179
EventSelector        INFO skipping event 182
EventSelector        INFO skipping event 183
EventSelector        INFO skipping event 186
EventSelector        INFO skipping event 188
EventSelector        INFO skipping event 189
EventSelector        INFO skipping event 192
EventSelector        INFO skipping event 195
EventSelector        INFO skipping event 196
EventSelector        INFO skipping event 198
EventSelector        INFO skipping event 199
EventSelector        INFO skipping event 200
EventSelector        INFO skipping event 201
EventSelector        INFO skipping event 202
EventSelector        INFO skipping event 203
EventSelector        INFO skipping event 206
EventSelector        INFO skipping event 209
EventSelector        INFO skipping event 210
EventSelector        INFO skipping event 212
EventSelector        INFO skipping event 215
EventSelector        INFO skipping event 216
EventSelector        INFO skipping event 218
EventSelector        INFO skipping event 222
EventSelector        INFO skipping event 223
EventSelector        INFO skipping event 226
EventSelector        INFO skipping event 227
EventSelector        INFO skipping event 230
EventSelector        INFO skipping event 231
EventSelector        INFO skipping event 232
EventSelector        INFO skipping event 233
EventSelector        INFO skipping event 236
EventSelector        INFO skipping event 237
EventSelector        INFO skipping event 243
EventSelector        INFO skipping event 245
EventSelector        INFO skipping event 247
EventSelector        INFO skipping event 249
EventSelector        INFO skipping event 251
EventSelector        INFO skipping event 254
EventSelector        INFO skipping event 258
EventSelector        INFO skipping event 264
EventSelector        INFO skipping event 266
EventSelector        INFO skipping event 267
EventSelector        INFO skipping event 268
EventSelector        INFO skipping event 275
EventSelector        INFO skipping event 277
EventSelector        INFO skipping event 279
EventSelector        INFO skipping event 281
EventSelector        INFO skipping event 282
EventSelector        INFO skipping event 287
EventSelector        INFO skipping event 291
EventSelector        INFO skipping event 292
EventSelector        INFO skipping event 293
EventSelector        INFO skipping event 294
EventSelector        INFO skipping event 297
EventSelector        INFO skipping event 303
EventSelector        INFO skipping event 305
EventSelector        INFO skipping event 306
EventSelector        INFO skipping event 309
EventSelector        INFO skipping event 313
EventSelector        INFO skipping event 317
EventSelector        INFO skipping event 318
EventSelector        INFO skipping event 321
EventSelector        INFO skipping event 323
EventSelector        INFO skipping event 325
EventSelector        INFO skipping event 326
EventSelector        INFO skipping event 328
EventSelector        INFO skipping event 330
EventSelector        INFO skipping event 331
EventSelector        INFO skipping event 332
EventSelector        INFO skipping event 336
EventSelector        INFO skipping event 339
EventSelector        INFO skipping event 343
EventSelector        INFO skipping event 348
EventSelector        INFO skipping event 349
EventSelector        INFO skipping event 350
EventSelector        INFO skipping event 351
EventSelector        INFO skipping event 353
EventSelector        INFO skipping event 355
EventSelector        INFO skipping event 358
EventSelector        INFO skipping event 361
EventSelector        INFO skipping event 363
EventSelector        INFO skipping event 364
EventSelector        INFO skipping event 365
EventSelector        INFO skipping event 367
EventSelector        INFO skipping event 370
EventSelector        INFO skipping event 372
EventSelector        INFO skipping event 373
EventSelector        INFO skipping event 374
EventSelector        INFO skipping event 376
EventSelector        INFO skipping event 377
EventSelector        INFO skipping event 378
EventSelector        INFO skipping event 381
EventSelector        INFO skipping event 382
EventSelector        INFO skipping event 383
EventSelector        INFO skipping event 384
EventSelector        INFO skipping event 385
EventSelector        INFO skipping event 386
EventSelector        INFO skipping event 387
EventSelector        INFO skipping event 389
EventSelector        INFO skipping event 391
EventSelector        INFO skipping event 392
EventSelector        INFO skipping event 394
EventSelector        INFO skipping event 395
EventSelector        INFO skipping event 399
EventSelector        INFO skipping event 400
EventSelector        INFO skipping event 404
EventSelector        INFO skipping event 406
EventSelector        INFO skipping event 409
EventSelector        INFO skipping event 410
EventSelector        INFO skipping event 411
EventSelector        INFO skipping event 413
EventSelector        INFO skipping event 417
EventSelector        INFO skipping event 420
EventSelector        INFO skipping event 422
EventSelector        INFO skipping event 427
EventSelector        INFO skipping event 428
EventSelector        INFO skipping event 430
EventSelector        INFO skipping event 434
EventSelector        INFO skipping event 435
EventSelector        INFO skipping event 436
EventSelector        INFO skipping event 438
EventSelector        INFO skipping event 440
EventSelector        INFO skipping event 442
EventSelector        INFO skipping event 443
EventSelector        INFO skipping event 446
EventSelector        INFO skipping event 447
EventSelector        INFO skipping event 450
EventSelector        INFO skipping event 454
EventSelector        INFO skipping event 455
EventSelector        INFO skipping event 457
EventSelector        INFO skipping event 458
EventSelector        INFO skipping event 459
EventSelector        INFO skipping event 460
EventSelector        INFO skipping event 464
EventSelector        INFO skipping event 466
EventSelector        INFO skipping event 467
EventSelector        INFO skipping event 469
EventSelector        INFO skipping event 473
EventSelector        INFO skipping event 474
EventSelector        INFO skipping event 476
EventSelector        INFO skipping event 477
EventSelector        INFO skipping event 478
EventSelector        INFO skipping event 479
EventSelector        INFO skipping event 481
EventSelector        INFO skipping event 483
EventSelector        INFO skipping event 487
EventSelector        INFO skipping event 488
EventSelector        INFO skipping event 489
EventSelector        INFO skipping event 490
EventSelector        INFO skipping event 493
EventSelector        INFO skipping event 494
EventSelector        INFO skipping event 496
EventSelector        INFO skipping event 498
EventSelector        INFO skipping event 500
EventSelector        INFO skipping event 502
EventSelector        INFO skipping event 504
EventSelector        INFO skipping event 505
EventSelector        INFO skipping event 506
EventSelector        INFO skipping event 509
EventSelector        INFO skipping event 512
EventSelector        INFO skipping event 514
EventSelector        INFO skipping event 517
EventSelector        INFO skipping event 518
EventSelector        INFO skipping event 519
EventSelector        INFO skipping event 521
EventSelector        INFO skipping event 522
EventSelector     WARNING INFO message limit (500) reached for EventSelector. Suppressing further output.
EventSelector       DEBUG Event source found no more valid files left in input list
EventSelector       DEBUG Calling EventSelectorByteStream::stop()
 EventSelector               |    INFO |      581
 EventSelector.EvenEventsSelectorTool|    INFO |    37344
